Version 4
SHEET 1 888 680
WIRE -176 112 -336 112
WIRE -16 112 -176 112
WIRE 224 112 48 112
WIRE 320 112 224 112
WIRE -176 176 -176 112
WIRE 224 176 224 112
WIRE -176 288 -176 256
WIRE -176 288 -336 288
WIRE 224 288 224 256
WIRE 224 288 -176 288
WIRE 320 288 224 288
FLAG 320 112 out+
FLAG 320 288 out-
FLAG -336 112 in+
FLAG -336 288 in-
FLAG 224 288 0
SYMBOL diode -16 128 R270
WINDOW 0 32 32 VTop 2
WINDOW 3 0 32 VBottom 2
SYMATTR InstName D1
SYMATTR Value DGodyaev
SYMBOL voltage -176 160 R0
WINDOW 123 0 0 Left 0
WINDOW 39 0 0 Left 0
SYMATTR InstName V1
SYMATTR Value SINE(0 3 4000)
SYMBOL res 208 160 R0
SYMATTR InstName R1
SYMATTR Value 5000
TEXT -200 -8 Left 2 !.model DGodyaev D(Rs = 1.3 Is = 1000p N = 1.65)
TEXT 440 184 Left 2 !.tran 0 1m 0 0.00001
