Circuit: * C:\Users\Dmitry\Desktop\Draft1.asc

Instance "m1": Length shorter than recommended for a level 1 MOSFET.
.step vd=0.1
.step vd=1
.step vd=2
.step vd=4

Date: Fri May 29 13:07:18 2020
Total elapsed time: 0.085 seconds.

tnom = 27
temp = 27
method = trap
totiter = 336
traniter = 0
tranpoints = 0
accept = 0
rejected = 0
matrix size = 4
fillins = 0
solver = Normal
Matrix Compiler1: 118 bytes object code size  0.1/0.0/[0.0]
Matrix Compiler2: 216 bytes object code size  0.1/0.0/[0.0]

