Version 4
SHEET 1 880 680
WIRE 608 0 368 0
WIRE 368 64 368 0
WIRE 480 144 368 144
WIRE 576 144 480 144
WIRE 576 160 576 144
WIRE 368 176 368 144
WIRE 288 256 208 256
WIRE 320 256 288 256
WIRE 576 256 576 224
WIRE 208 384 208 336
WIRE 368 384 368 272
FLAG 368 384 0
FLAG 208 384 0
FLAG 576 256 0
FLAG 608 80 0
FLAG 288 256 in
FLAG 480 144 out
SYMBOL nmos 320 176 R0
SYMATTR InstName M1
SYMATTR Value DGodyaev
SYMBOL voltage 208 240 R0
WINDOW 123 0 0 Left 0
WINDOW 39 0 0 Left 0
SYMATTR InstName Vin1
SYMATTR Value PULSE( 0 6 0 1p 1p {p/2} {p})
SYMBOL cap 560 160 R0
SYMATTR InstName C1
SYMATTR Value 20p
SYMBOL res 352 48 R0
SYMATTR InstName R1
SYMATTR Value 1k
SYMBOL voltage 608 -16 R0
SYMATTR InstName Vsup1
SYMATTR Value 6
TEXT -312 -72 Left 2 !.model DGodyaev nmos (VTO=4 KP=6m Lambda=0.04 Cgdo=70p Cgso=2.5p W=10u l=1u)
TEXT -312 -40 Left 2 !.tran 1u
TEXT -312 -8 Left 2 !.param p=92n
